<?xml version="1.0" encoding="utf-8"?>
<!-- Generator: Adobe Illustrator 16.0.0, SVG Export Plug-In . SVG Version: 6.00 Build 0)  -->
<!DOCTYPE svg PUBLIC "-//W3C//DTD SVG 1.1//EN" "http://www.w3.org/Graphics/SVG/1.1/DTD/svg11.dtd">
<svg version="1.1" id="Layer_1" xmlns="http://www.w3.org/2000/svg" xmlns:xlink="http://www.w3.org/1999/xlink" x="0px" y="0px"
	 width="100px" height="100px" viewBox="0 0 100 100" enable-background="new 0 0 100 100" xml:space="preserve">
<g>
	<path fill-rule="evenodd" clip-rule="evenodd" d="M0.613,27.808c0.45-1.739,1.177-3.297,2.637-4.457
		c2.457-1.952,6.023-1.999,8.483-0.041c0.476,0.379,0.924,0.799,1.355,1.229c12.006,12.001,24.01,24.006,36.009,36.015
		c0.271,0.271,0.489,0.595,1.155,1.086c0.19-0.337,0.316-0.741,0.581-1.004c12.106-12.128,24.228-24.242,36.341-36.364
		c2.074-2.077,4.481-2.965,7.363-2.065c2.27,0.709,3.773,2.237,4.501,4.512c0.115,0.363,0.232,0.726,0.349,1.088
		c0,0.643,0,1.286,0,1.929c-0.438,2.149-1.786,3.693-3.289,5.193C82.489,48.501,68.902,62.096,55.319,75.693
		c-2.136,2.139-4.616,3.055-7.527,2.024c-1.051-0.372-2.086-1.055-2.88-1.845C30.882,61.904,16.894,47.894,2.886,33.902
		c-1.177-1.176-1.861-2.589-2.273-4.166C0.613,29.094,0.613,28.451,0.613,27.808z"/>
</g>
</svg>
