<?xml version="1.0" encoding="utf-8"?>
<!-- Generator: Adobe Illustrator 16.0.0, SVG Export Plug-In . SVG Version: 6.00 Build 0)  -->
<!DOCTYPE svg PUBLIC "-//W3C//DTD SVG 1.1//EN" "http://www.w3.org/Graphics/SVG/1.1/DTD/svg11.dtd">
<svg version="1.1" id="Layer_1" xmlns="http://www.w3.org/2000/svg" xmlns:xlink="http://www.w3.org/1999/xlink" x="0px" y="0px"
	 width="515px" height="280px" viewBox="0 0 515 280" enable-background="new 0 0 515 280" xml:space="preserve">
<g id="g10" transform="matrix(1.3333333,0,0,-1.3333333,0,700.00005)" inkscape:label="sebrae-logo" inkscape:groupmode="layer">
	
		<path id="path68" inkscape:connector-curvature="0" inkscape:export-ydpi="74.527191" inkscape:export-xdpi="74.527191" fill="#1D66C4" d="
		M242.02,386.207l40.753,65.875h22.705l12.283-65.883h-21.03l-1.769,13.232h-26.892l-7.445-13.232H242.02h-0.006h-20.187
		c-0.124,2.446,0.218,7.428,1.024,14.948c0.248,2.629,0.372,4.433,0.372,5.41c0,2.018-0.511,3.439-1.535,4.264
		s-3.024,1.238-6.002,1.238h-7.816l-5.584-25.86h-18.704l14.238,66.21h31.08c5.336,0,8.871-0.122,10.608-0.367
		c4.219-0.611,7.228-2.078,9.026-4.402c1.675-2.079,2.513-4.677,2.513-7.794c0-1.589-0.187-3.27-0.559-5.043
		c-1.241-5.686-4.187-9.781-8.84-12.289c-3.04-1.651-6.7-2.782-10.98-3.393l-0.093-0.367c4.838-0.122,8.127-1.07,9.864-2.843
		c1.489-1.467,2.233-3.943,2.233-7.427c0-1.162-0.094-3.149-0.279-5.961C241.835,394.338,241.711,388.9,242.02,386.207
		L242.02,386.207z M105.035,314.912h121.976l4.539,22.566H109.573L105.035,314.912z M112.487,349.93h121.975l4.539,22.566H117.025
		L112.487,349.93z M136.892,466.004h121.975l4.54,22.567H141.431L136.892,466.004z M144.344,501.023h121.975l4.54,22.566H148.883
		L144.344,501.023z M321.86,386.199l14.238,66.189h50.435l-2.699-12.686h-32.01l-2.977-13.789h30.149l-2.792-12.686h-30.149
		l-2.977-14.157h32.754l-2.791-12.87H321.86z M61.604,386.199l14.237,66.189h50.434l-2.699-12.686H91.567l-2.977-13.789h30.149
		l-2.792-12.686H85.798l-2.978-14.157h32.755l-2.792-12.87H61.604z M1.109,407.775h18.426c-0.245-1.169-0.367-2.134-0.367-2.894
		c0-4.62,3.117-6.929,9.35-6.929c6.539,0,10.359,2.397,11.458,7.192c0.122,0.584,0.183,1.14,0.183,1.667
		c0,2.163-1.527,3.653-4.583,4.473l-15.308,4.033c-8.678,2.281-13.017,6.695-13.017,13.244c0,1.287,0.152,2.66,0.458,4.122
		c1.284,5.613,4.492,10.203,9.625,13.77c5.806,4.034,13.354,6.051,22.642,6.051c15.523,0,23.284-4.794,23.284-14.383
		c0-1.579-0.245-3.509-0.734-5.788H43.918c0.305,1.169,0.458,2.163,0.458,2.982c0,3.859-2.383,5.788-7.15,5.788
		c-2.628,0-4.89-0.628-6.784-1.886c-1.894-1.257-3.025-2.85-3.391-4.78c-0.122-0.527-0.184-1.023-0.184-1.491
		c0-2.396,1.804-4.063,5.409-4.999l11.642-3.07c5.072-1.345,8.616-2.69,10.633-4.035c3.423-2.221,5.134-5.437,5.134-9.647
		c0-1.403-0.183-2.923-0.55-4.561c-1.467-6.782-5.409-11.957-11.825-15.523c-5.867-3.275-13.169-4.912-21.909-4.912
		c-11.306,0-18.762,2.515-22.367,7.542c-1.711,2.339-2.566,5.205-2.566,8.596C0.468,403.74,0.681,405.553,1.109,407.775
		L1.109,407.775z M119.982,386.199l14.175,66.404h36.352c1.16-0.094,2.153-0.211,2.979-0.352c4.28-0.801,7.537-2.401,9.771-4.803
		c2.047-2.218,3.071-4.896,3.071-8.037c0-1.108-0.124-2.249-0.372-3.418c-1.675-7.698-7.537-12.749-17.587-15.151l-0.093-0.185
		c8.747-1.601,13.121-5.728,13.121-12.379c0-4.188-1.179-7.991-3.536-11.41c-2.357-3.418-5.506-6.051-9.445-7.898
		c-3.939-1.847-10.189-2.771-18.751-2.771H119.982z M149.759,440.796l-3.164-14.78h8.747c3.288,0,5.521,0.277,6.7,0.831
		c2.605,1.293,4.218,3.449,4.838,6.467c0.558,2.587,0.124,4.557-1.303,5.913c-1.116,1.047-3.008,1.57-5.676,1.57H149.759z
		 M144.084,414.19l-3.349-15.796h10.328c6.39,0,10.143,2.587,11.26,7.76c0.186,0.8,0.279,1.54,0.279,2.217
		c0,3.88-2.916,5.819-8.747,5.819H144.084z M275.049,411.567h18.239l-2.699,27.649h-0.278L275.049,411.567z M213.919,440.213
		l-3.444-16.232h6.98c3.97,0,6.576,0.184,7.816,0.551c3.536,1.039,5.707,3.546,6.514,7.52c0.185,0.855,0.278,1.619,0.278,2.292
		c0,2.569-1.241,4.28-3.722,5.136c-1.488,0.489-3.97,0.734-7.444,0.734H213.919z"/>
</g>
</svg>
