<?xml version="1.0" encoding="utf-8"?>
<!-- Generator: Adobe Illustrator 16.0.0, SVG Export Plug-In . SVG Version: 6.00 Build 0)  -->
<!DOCTYPE svg PUBLIC "-//W3C//DTD SVG 1.1//EN" "http://www.w3.org/Graphics/SVG/1.1/DTD/svg11.dtd">
<svg version="1.1" id="Layer_1" xmlns="http://www.w3.org/2000/svg" xmlns:xlink="http://www.w3.org/1999/xlink" x="0px" y="0px"
	 width="300px" height="300px" viewBox="0 0 300 300" enable-background="new 0 0 300 300" xml:space="preserve">
<g>
	<path fill-rule="evenodd" clip-rule="evenodd" d="M276.908,300c-0.251-29.867-9.532-56.615-28.609-79.585
		c-21.175-25.497-48.246-41.037-81.346-45.018c-38.252-4.604-71.915,6.106-100.471,32.014
		c-23.417,21.249-36.678,47.862-40.333,79.241c-0.515,4.416-0.494,8.898-0.721,13.348c-7.762,0-15.523,0-23.285,0
		c0-2.911,0-5.821,0-8.732c0.168-0.832,0.435-1.658,0.491-2.498c1.029-15.408,4.359-30.32,10.323-44.539
		c16.799-40.052,45.519-67.987,85.974-83.832c1.006-0.393,2.007-0.798,3.347-1.332c-1.303-0.982-2.16-1.605-2.993-2.262
		C77.729,139.872,66.05,117.762,65.116,90.33c-0.61-17.931,4.186-34.572,14.164-49.51c11.796-17.663,27.896-29.717,48.436-35.438
		c5.75-1.601,11.747-2.312,17.631-3.431c3.881,0,7.761,0,11.643,0c4.669,0.79,9.433,1.219,13.991,2.428
		c32.327,8.581,54.171,28.754,62.986,60.993c9.222,33.721-0.159,62.952-25.548,86.973c-2.492,2.358-5.295,4.389-7.936,6.556
		c0.15,0.239,0.18,0.358,0.254,0.393c0.521,0.251,1.035,0.518,1.574,0.713c20.162,7.349,37.897,18.575,53.156,33.628
		c22.618,22.31,36.902,49.082,42.394,80.433c0.998,5.693,1.565,11.466,2.331,17.201c0,2.911,0,5.821,0,8.732
		C292.43,300,284.67,300,276.908,300z M214.027,88.002c-0.094-34.55-28.29-62.718-62.817-62.757
		c-34.603-0.039-62.998,28.383-62.903,62.965c0.096,34.549,28.291,62.716,62.819,62.755
		C185.729,151.005,214.123,122.583,214.027,88.002z"/>
</g>
</svg>
