[12:22:17] <strong>Record</strong> #1
[12:22:17] post #351 Successfully Imported
[12:22:17] <strong>Record</strong> #2
[12:22:17] post #352 Successfully Imported
[12:22:17] <strong>Record</strong> #3
[12:22:17] post #353 Successfully Imported
[12:22:17] <strong>Record</strong> #4
[12:22:17] post #354 Successfully Imported
[12:22:17] <strong>Record</strong> #5
[12:22:17] post #355 Successfully Imported
[12:22:17] <strong>Record</strong> #6
[12:22:17] post #356 Successfully Imported
[12:22:17] <strong>Record</strong> #7
[12:22:17] post #357 Successfully Imported
[12:22:17] <strong>Record</strong> #8
[12:22:17] post #358 Successfully Imported
[12:22:17] <strong>Record</strong> #9
[12:22:17] post #359 Successfully Imported
[12:22:17] <strong>Record</strong> #10
[12:22:17] post #360 Successfully Imported
[12:22:17] <strong>Record</strong> #11
[12:22:17] post #361 Successfully Imported
[12:22:17] <strong>Record</strong> #12
[12:22:17] post #362 Successfully Imported
[12:22:17] <strong>Record</strong> #13
[12:22:17] post #363 Successfully Imported
[12:22:17] <strong>Record</strong> #14
[12:22:17] post #364 Successfully Imported
[12:22:17] <strong>Record</strong> #15
[12:22:17] post #365 Successfully Imported
[12:22:17] <strong>Record</strong> #16
[12:22:17] post #366 Successfully Imported
[12:22:17] <strong>Record</strong> #17
[12:22:17] post #367 Successfully Imported
[12:22:17] <strong>Record</strong> #18
[12:22:17] post #368 Successfully Imported
[12:22:17] <strong>Record</strong> #19
[12:22:17] post #369 Successfully Imported
[12:22:17] <strong>Record</strong> #20
[12:22:17] post #370 Successfully Imported
[12:22:19] <strong>Record</strong> #21
[12:22:19] post #371 Successfully Imported
[12:22:19] <strong>Record</strong> #22
[12:22:19] post #372 Successfully Imported
[12:22:19] <strong>Record</strong> #23
[12:22:19] post #373 Successfully Imported
[12:22:19] <strong>Record</strong> #24
[12:22:19] post #374 Successfully Imported
[12:22:19] <strong>Record</strong> #25
[12:22:19] post #375 Successfully Imported
[12:22:19] <strong>Record</strong> #26
[12:22:19] post #376 Successfully Imported
[12:22:19] <strong>Record</strong> #27
[12:22:19] post #377 Successfully Imported
[12:22:19] <strong>Record</strong> #28
[12:22:19] post #378 Successfully Imported
[12:22:19] <strong>Record</strong> #29
[12:22:19] post #379 Successfully Imported
[12:22:19] <strong>Record</strong> #30
[12:22:19] post #380 Successfully Imported
[12:22:19] <strong>Record</strong> #31
[12:22:19] post #381 Successfully Imported
[12:22:19] <strong>Record</strong> #32
[12:22:19] post #382 Successfully Imported
[12:22:19] <strong>Record</strong> #33
[12:22:19] post #383 Successfully Imported
[12:22:19] <strong>Record</strong> #34
[12:22:19] post #384 Successfully Imported
[12:22:19] <strong>Record</strong> #35
[12:22:19] post #385 Successfully Imported
[12:22:19] <strong>Record</strong> #36
[12:22:19] post #386 Successfully Imported
[12:22:19] <strong>Record</strong> #37
[12:22:19] post #387 Successfully Imported
[12:22:19] <strong>Record</strong> #38
[12:22:19] post #388 Successfully Imported
[12:22:19] <strong>Record</strong> #39
[12:22:19] post #389 Successfully Imported
[12:22:19] <strong>Record</strong> #40
[12:22:19] post #390 Successfully Imported
[12:22:20] <strong>Record</strong> #41
[12:22:20] post #391 Successfully Imported
[12:22:20] <strong>Record</strong> #42
[12:22:20] post #392 Successfully Imported
[12:22:20] <strong>Record</strong> #43
[12:22:21] post #393 Successfully Imported
[12:22:21] <strong>Record</strong> #44
[12:22:21] post #394 Successfully Imported
[12:22:21] <strong>Record</strong> #45
[12:22:21] post #395 Successfully Imported
[12:22:21] <strong>Record</strong> #46
[12:22:21] post #396 Successfully Imported
[12:22:21] <strong>Record</strong> #47
[12:22:21] post #397 Successfully Imported
[12:22:21] <strong>Record</strong> #48
[12:22:21] post #398 Successfully Imported
[12:22:21] <strong>Record</strong> #49
[12:22:21] post #399 Successfully Imported
[12:22:21] <strong>Record</strong> #50
[12:22:21] post #400 Successfully Imported
[12:22:21] <strong>Record</strong> #51
[12:22:21] post #401 Successfully Imported
[12:22:21] <strong>Record</strong> #52
[12:22:21] post #402 Successfully Imported
[12:22:21] <strong>Record</strong> #53
[12:22:21] post #403 Successfully Imported
[12:22:21] <strong>Record</strong> #54
[12:22:21] post #404 Successfully Imported
[12:22:21] <strong>Record</strong> #55
[12:22:21] post #405 Successfully Imported
[12:22:21] <strong>Record</strong> #56
[12:22:21] post #406 Successfully Imported
[12:22:21] <strong>Record</strong> #57
[12:22:21] post #407 Successfully Imported
[12:22:21] <strong>Record</strong> #58
[12:22:21] post #408 Successfully Imported
[12:22:21] <strong>Record</strong> #59
[12:22:21] post #409 Successfully Imported
[12:22:21] <strong>Record</strong> #60
[12:22:21] post #410 Successfully Imported
[12:22:22] <strong>Record</strong> #61
[12:22:22] post #411 Successfully Imported
[12:22:22] <strong>Record</strong> #62
[12:22:22] post #412 Successfully Imported
[12:22:22] <strong>Record</strong> #63
[12:22:22] post #413 Successfully Imported
[12:22:22] <strong>Record</strong> #64
[12:22:22] post #414 Successfully Imported
[12:22:22] <strong>Record</strong> #65
[12:22:22] post #415 Successfully Imported
[12:22:22] <strong>Record</strong> #66
[12:22:22] post #416 Successfully Imported
[12:22:22] <strong>Record</strong> #67
[12:22:22] post #417 Successfully Imported
[12:22:22] <strong>Record</strong> #68
[12:22:22] post #418 Successfully Imported
[12:22:22] <strong>Record</strong> #69
[12:22:22] post #419 Successfully Imported
[12:22:22] <strong>Record</strong> #70
[12:22:22] post #420 Successfully Imported
[12:22:22] <strong>Record</strong> #71
[12:22:22] post #421 Successfully Imported
[12:22:22] <strong>Record</strong> #72
[12:22:22] post #422 Successfully Imported
[12:22:22] <strong>Record</strong> #73
[12:22:22] post #423 Successfully Imported
[12:22:22] <strong>Record</strong> #74
[12:22:22] post #424 Successfully Imported
[12:22:22] <strong>Record</strong> #75
[12:22:22] post #425 Successfully Imported
[12:22:22] <strong>Record</strong> #76
[12:22:22] post #426 Successfully Imported
[12:22:22] <strong>Record</strong> #77
[12:22:22] post #427 Successfully Imported
[12:22:22] <strong>Record</strong> #78
[12:22:22] post #428 Successfully Imported
[12:22:22] <strong>Record</strong> #79
[12:22:22] post #429 Successfully Imported
[12:22:22] <strong>Record</strong> #80
[12:22:22] post #430 Successfully Imported
[12:22:23] <strong>Record</strong> #81
[12:22:24] post #431 Successfully Imported
[12:22:24] <strong>Record</strong> #82
[12:22:24] post #432 Successfully Imported
[12:22:24] <strong>Record</strong> #83
[12:22:24] post #433 Successfully Imported
[12:22:24] <strong>Record</strong> #84
[12:22:24] post #434 Successfully Imported
[12:22:24] <strong>Record</strong> #85
[12:22:24] post #435 Successfully Imported
[12:22:24] <strong>Record</strong> #86
[12:22:24] post #436 Successfully Imported
[12:22:24] <strong>Record</strong> #87
[12:22:24] post #437 Successfully Imported
[12:22:24] <strong>Record</strong> #88
[12:22:24] post #438 Successfully Imported
[12:22:24] <strong>Record</strong> #89
[12:22:24] post #439 Successfully Imported
[12:22:24] <strong>Record</strong> #90
[12:22:24] post #440 Successfully Imported
[12:22:24] <strong>Record</strong> #91
[12:22:24] post #441 Successfully Imported
[12:22:24] <strong>Record</strong> #92
[12:22:24] post #442 Successfully Imported
[12:22:24] <strong>Record</strong> #93
[12:22:24] post #443 Successfully Imported
[12:22:24] <strong>Record</strong> #94
[12:22:24] post #444 Successfully Imported
[12:22:24] <strong>Record</strong> #95
[12:22:24] post #445 Successfully Imported
[12:22:24] <strong>Record</strong> #96
[12:22:24] post #446 Successfully Imported
[12:22:24] <strong>Record</strong> #97
[12:22:24] post #447 Successfully Imported
[12:22:24] <strong>Record</strong> #98
[12:22:24] post #448 Successfully Imported
[12:22:24] <strong>Record</strong> #99
[12:22:24] post #449 Successfully Imported
[12:22:24] <strong>Record</strong> #100
[12:22:24] post #450 Successfully Imported
[12:22:25] <strong>Record</strong> #101
[12:22:25] post #451 Successfully Imported
[12:22:25] <strong>Record</strong> #102
[12:22:25] post #452 Successfully Imported
[12:22:25] <strong>Record</strong> #103
[12:22:25] post #453 Successfully Imported
[12:22:25] <strong>Record</strong> #104
[12:22:25] post #454 Successfully Imported
[12:22:25] <strong>Record</strong> #105
[12:22:25] post #455 Successfully Imported
[12:22:25] <strong>Record</strong> #106
[12:22:25] post #456 Successfully Imported
[12:22:25] <strong>Record</strong> #107
[12:22:25] post #457 Successfully Imported
[12:22:25] <strong>Record</strong> #108
[12:22:25] post #458 Successfully Imported
[12:22:25] <strong>Record</strong> #109
[12:22:25] post #459 Successfully Imported
[12:22:25] <strong>Record</strong> #110
[12:22:25] post #460 Successfully Imported
[12:22:25] <strong>Record</strong> #111
[12:22:25] post #461 Successfully Imported
[12:22:25] <strong>Record</strong> #112
[12:22:25] post #462 Successfully Imported
[12:22:25] <strong>Record</strong> #113
[12:22:25] post #463 Successfully Imported
[12:22:25] <strong>Record</strong> #114
[12:22:25] post #464 Successfully Imported
[12:22:25] <strong>Record</strong> #115
[12:22:25] post #465 Successfully Imported
[12:22:25] <strong>Record</strong> #116
[12:22:25] post #466 Successfully Imported
[12:22:25] <strong>Record</strong> #117
[12:22:25] post #467 Successfully Imported
[12:22:25] <strong>Record</strong> #118
[12:22:25] post #468 Successfully Imported
[12:22:25] <strong>Record</strong> #119
[12:22:25] post #469 Successfully Imported
[12:22:25] <strong>Record</strong> #120
[12:22:25] post #470 Successfully Imported
[12:22:27] <strong>Record</strong> #121
[12:22:27] post #471 Successfully Imported
[12:22:27] <strong>Record</strong> #122
[12:22:27] post #472 Successfully Imported
[12:22:27] <strong>Record</strong> #123
[12:22:27] post #473 Successfully Imported
[12:22:27] <strong>Record</strong> #124
[12:22:27] post #474 Successfully Imported
[12:22:27] <strong>Record</strong> #125
[12:22:27] post #475 Successfully Imported
[12:22:27] <strong>Record</strong> #126
[12:22:27] post #476 Successfully Imported
[12:22:27] <strong>Record</strong> #127
[12:22:27] post #477 Successfully Imported
[12:22:27] <strong>Record</strong> #128
[12:22:27] post #478 Successfully Imported
[12:22:27] <strong>Record</strong> #129
[12:22:27] post #479 Successfully Imported
[12:22:27] <strong>Record</strong> #130
[12:22:27] post #480 Successfully Imported
[12:22:27] <strong>Record</strong> #131
[12:22:27] post #481 Successfully Imported
[12:22:27] <strong>Record</strong> #132
[12:22:27] post #482 Successfully Imported
[12:22:27] <strong>Record</strong> #133
[12:22:27] post #483 Successfully Imported
[12:22:27] <strong>Record</strong> #134
[12:22:27] post #484 Successfully Imported
[12:22:27] <strong>Record</strong> #135
[12:22:27] post #485 Successfully Imported
[12:22:27] <strong>Record</strong> #136
[12:22:27] post #486 Successfully Imported
[12:22:27] <strong>Record</strong> #137
[12:22:27] post #487 Successfully Imported
[12:22:27] <strong>Record</strong> #138
[12:22:27] post #488 Successfully Imported
[12:22:27] <strong>Record</strong> #139
[12:22:27] post #489 Successfully Imported
[12:22:27] <strong>Record</strong> #140
[12:22:27] post #490 Successfully Imported
[12:22:28] <strong>Record</strong> #141
[12:22:28] post #491 Successfully Imported
[12:22:28] <strong>Record</strong> #142
[12:22:28] post #492 Successfully Imported
[12:22:28] <strong>Record</strong> #143
[12:22:28] post #493 Successfully Imported
[12:22:28] <strong>Record</strong> #144
[12:22:28] post #494 Successfully Imported
[12:22:28] <strong>Record</strong> #145
[12:22:28] post #495 Successfully Imported
[12:22:28] <strong>Record</strong> #146
[12:22:28] post #496 Successfully Imported
[12:22:28] <strong>Record</strong> #147
[12:22:28] post #497 Successfully Imported
[12:22:28] <strong>Record</strong> #148
[12:22:28] post #498 Successfully Imported
[12:22:28] <strong>Record</strong> #149
[12:22:28] post #499 Successfully Imported
[12:22:28] <strong>Record</strong> #150
[12:22:28] post #500 Successfully Imported
[12:22:28] <strong>Record</strong> #151
[12:22:28] post #501 Successfully Imported
[12:22:28] <strong>Record</strong> #152
[12:22:28] post #502 Successfully Imported
[12:22:28] <strong>Record</strong> #153
[12:22:28] post #503 Successfully Imported
[12:22:28] <strong>Record</strong> #154
[12:22:28] post #504 Successfully Imported
[12:22:28] <strong>Record</strong> #155
[12:22:28] post #505 Successfully Imported
[12:22:28] <strong>Record</strong> #156
[12:22:28] post #506 Successfully Imported
[12:22:28] <strong>Record</strong> #157
[12:22:28] post #507 Successfully Imported
[12:22:28] <strong>Record</strong> #158
[12:22:28] post #508 Successfully Imported
[12:22:28] <strong>Record</strong> #159
[12:22:28] post #509 Successfully Imported
[12:22:28] <strong>Record</strong> #160
[12:22:28] post #510 Successfully Imported
[12:22:30] <strong>Record</strong> #161
[12:22:30] post #511 Successfully Imported
[12:22:30] <strong>Record</strong> #162
[12:22:30] post #512 Successfully Imported
[12:22:30] <strong>Record</strong> #163
[12:22:30] post #513 Successfully Imported
[12:22:30] <strong>Record</strong> #164
[12:22:30] post #514 Successfully Imported
[12:22:30] <strong>Record</strong> #165
[12:22:30] post #515 Successfully Imported
[12:22:30] <strong>Record</strong> #166
[12:22:30] post #516 Successfully Imported
[12:22:30] <strong>Record</strong> #167
[12:22:30] post #517 Successfully Imported
[12:22:30] <strong>Record</strong> #168
[12:22:30] post #518 Successfully Imported
[12:22:30] <strong>Record</strong> #169
[12:22:30] post #519 Successfully Imported
[12:22:30] <strong>Record</strong> #170
[12:22:30] post #520 Successfully Imported
[12:22:30] <strong>Record</strong> #171
[12:22:30] post #521 Successfully Imported
[12:22:30] <strong>Record</strong> #172
[12:22:30] post #522 Successfully Imported
[12:22:30] <strong>Record</strong> #173
[12:22:30] post #523 Successfully Imported
[12:22:30] <strong>Record</strong> #174
[12:22:30] post #524 Successfully Imported
[12:22:30] <strong>Record</strong> #175
[12:22:30] post #525 Successfully Imported
[12:22:30] <strong>Record</strong> #176
[12:22:30] post #526 Successfully Imported
[12:22:30] <strong>Record</strong> #177
[12:22:30] post #527 Successfully Imported
[12:22:30] <strong>Record</strong> #178
[12:22:30] post #528 Successfully Imported
[12:22:30] <strong>Record</strong> #179
[12:22:30] post #529 Successfully Imported
[12:22:30] <strong>Record</strong> #180
[12:22:30] post #530 Successfully Imported
[12:22:31] <strong>Record</strong> #181
[12:22:31] post #531 Successfully Imported
[12:22:31] <strong>Record</strong> #182
[12:22:31] post #532 Successfully Imported
[12:22:31] <strong>Record</strong> #183
[12:22:31] post #533 Successfully Imported
[12:22:31] <strong>Record</strong> #184
[12:22:31] post #534 Successfully Imported
[12:22:31] <strong>Record</strong> #185
[12:22:31] post #535 Successfully Imported
[12:22:31] <strong>Record</strong> #186
[12:22:31] post #536 Successfully Imported
[12:22:31] <strong>Record</strong> #187
[12:22:31] post #537 Successfully Imported
[12:22:31] <strong>Record</strong> #188
[12:22:31] post #538 Successfully Imported
[12:22:31] <strong>Record</strong> #189
[12:22:31] post #539 Successfully Imported
[12:22:31] <strong>Record</strong> #190
[12:22:31] post #540 Successfully Imported
[12:22:31] <strong>Record</strong> #191
[12:22:31] post #541 Successfully Imported
[12:22:31] <strong>Record</strong> #192
[12:22:31] post #542 Successfully Imported
[12:22:31] <strong>Record</strong> #193
[12:22:31] post #543 Successfully Imported
[12:22:31] <strong>Record</strong> #194
[12:22:31] post #544 Successfully Imported
[12:22:31] <strong>Record</strong> #195
[12:22:31] post #545 Successfully Imported
[12:22:31] <strong>Record</strong> #196
[12:22:31] post #546 Successfully Imported
[12:22:31] <strong>Record</strong> #197
[12:22:31] post #547 Successfully Imported
[12:22:31] <strong>Record</strong> #198
[12:22:31] post #548 Successfully Imported
[12:22:31] <strong>Record</strong> #199
[12:22:31] post #549 Successfully Imported
[12:22:31] <strong>Record</strong> #200
[12:22:31] post #550 Successfully Imported
[12:22:33] <strong>Record</strong> #201
[12:22:33] post #551 Successfully Imported
[12:22:33] <strong>Record</strong> #202
[12:22:33] post #552 Successfully Imported
[12:22:33] <strong>Record</strong> #203
[12:22:33] post #553 Successfully Imported
[12:22:33] <strong>Record</strong> #204
[12:22:33] post #554 Successfully Imported
[12:22:33] <strong>Record</strong> #205
[12:22:33] post #555 Successfully Imported
[12:22:33] <strong>Record</strong> #206
[12:22:33] post #556 Successfully Imported
[12:22:33] <strong>Record</strong> #207
[12:22:33] post #557 Successfully Imported
[12:22:33] <strong>Record</strong> #208
[12:22:33] post #558 Successfully Imported
[12:22:33] <strong>Record</strong> #209
[12:22:33] post #559 Successfully Imported
[12:22:33] <strong>Record</strong> #210
[12:22:33] post #560 Successfully Imported
[12:22:33] <strong>Record</strong> #211
[12:22:33] post #561 Successfully Imported
[12:22:33] <strong>Record</strong> #212
[12:22:33] post #562 Successfully Imported
[12:22:33] <strong>Record</strong> #213
[12:22:33] post #563 Successfully Imported
[12:22:33] <strong>Record</strong> #214
[12:22:33] post #564 Successfully Imported
[12:22:33] <strong>Record</strong> #215
[12:22:33] post #565 Successfully Imported
[12:22:33] <strong>Record</strong> #216
[12:22:33] post #566 Successfully Imported
[12:22:33] <strong>Record</strong> #217
[12:22:33] post #567 Successfully Imported
[12:22:33] <strong>Record</strong> #218
[12:22:33] post #568 Successfully Imported
[12:22:33] <strong>Record</strong> #219
[12:22:33] post #569 Successfully Imported
[12:22:33] <strong>Record</strong> #220
[12:22:33] post #570 Successfully Imported
[12:22:34] <strong>Record</strong> #221
[12:22:34] post #571 Successfully Imported
[12:22:34] <strong>Record</strong> #222
[12:22:34] post #572 Successfully Imported
[12:22:34] <strong>Record</strong> #223
[12:22:34] post #573 Successfully Imported
[12:22:34] <strong>Record</strong> #224
[12:22:34] post #574 Successfully Imported
[12:22:34] <strong>Record</strong> #225
[12:22:34] post #575 Successfully Imported
[12:22:34] <strong>Record</strong> #226
[12:22:34] post #576 Successfully Imported
[12:22:34] <strong>Record</strong> #227
[12:22:34] post #577 Successfully Imported
[12:22:34] <strong>Record</strong> #228
[12:22:34] post #578 Successfully Imported
[12:22:34] <strong>Record</strong> #229
[12:22:34] post #579 Successfully Imported
[12:22:34] <strong>Record</strong> #230
[12:22:34] post #580 Successfully Imported
[12:22:34] <strong>Record</strong> #231
[12:22:34] post #581 Successfully Imported
[12:22:34] <strong>Record</strong> #232
[12:22:34] post #582 Successfully Imported
[12:22:34] <strong>Record</strong> #233
[12:22:34] post #583 Successfully Imported
[12:22:34] <strong>Record</strong> #234
[12:22:34] post #584 Successfully Imported
[12:22:34] <strong>Record</strong> #235
[12:22:34] post #585 Successfully Imported
[12:22:34] <strong>Record</strong> #236
[12:22:34] post #586 Successfully Imported
[12:22:34] <strong>Record</strong> #237
[12:22:34] post #587 Successfully Imported
[12:22:34] <strong>Record</strong> #238
[12:22:34] post #588 Successfully Imported
[12:22:34] <strong>Record</strong> #239
[12:22:34] post #589 Successfully Imported
[12:22:34] <strong>Record</strong> #240
[12:22:34] post #590 Successfully Imported
[12:22:36] <strong>Record</strong> #241
[12:22:36] post #591 Successfully Imported
[12:22:36] <strong>Record</strong> #242
[12:22:36] post #592 Successfully Imported
[12:22:36] <strong>Record</strong> #243
[12:22:36] post #593 Successfully Imported
[12:22:36] <strong>Record</strong> #244
[12:22:36] post #594 Successfully Imported
[12:22:36] <strong>Record</strong> #245
[12:22:36] post #595 Successfully Imported
[12:22:36] <strong>Record</strong> #246
[12:22:36] post #596 Successfully Imported
[12:22:36] <strong>Record</strong> #247
[12:22:36] post #597 Successfully Imported
[12:22:36] <strong>Record</strong> #248
[12:22:36] post #598 Successfully Imported
[12:22:36] <strong>Record</strong> #249
[12:22:36] post #599 Successfully Imported
[12:22:36] <strong>Record</strong> #250
[12:22:36] post #600 Successfully Imported
[12:22:36] <strong>Record</strong> #251
[12:22:36] post #601 Successfully Imported
[12:22:36] <strong>Record</strong> #252
[12:22:36] post #602 Successfully Imported
[12:22:36] <strong>Record</strong> #253
[12:22:36] post #603 Successfully Imported
[12:22:36] <strong>Record</strong> #254
[12:22:36] post #604 Successfully Imported
[12:22:36] <strong>Record</strong> #255
[12:22:36] post #605 Successfully Imported
[12:22:36] <strong>Record</strong> #256
[12:22:36] post #606 Successfully Imported
[12:22:36] <strong>Record</strong> #257
[12:22:36] post #607 Successfully Imported
[12:22:36] <strong>Record</strong> #258
[12:22:36] post #608 Successfully Imported
[12:22:36] <strong>Record</strong> #259
[12:22:36] post #609 Successfully Imported
[12:22:36] <strong>Record</strong> #260
[12:22:36] post #610 Successfully Imported
[12:22:38] <strong>Record</strong> #261
[12:22:38] post #611 Successfully Imported
[12:22:38] <strong>Record</strong> #262
[12:22:38] post #612 Successfully Imported
[12:22:38] <strong>Record</strong> #263
[12:22:38] post #613 Successfully Imported
[12:22:38] <strong>Record</strong> #264
[12:22:38] post #614 Successfully Imported
[12:22:38] <strong>Record</strong> #265
[12:22:38] post #615 Successfully Imported
[12:22:38] <strong>Record</strong> #266
[12:22:38] post #616 Successfully Imported
[12:22:38] <strong>Record</strong> #267
[12:22:38] post #617 Successfully Imported
[12:22:38] <strong>Record</strong> #268
[12:22:38] post #618 Successfully Imported
[12:22:38] <strong>Record</strong> #269
[12:22:38] post #619 Successfully Imported
[12:22:38] <strong>Record</strong> #270
[12:22:38] post #620 Successfully Imported
[12:22:38] <strong>Record</strong> #271
[12:22:38] post #621 Successfully Imported
[12:22:38] <strong>Record</strong> #272
[12:22:38] post #622 Successfully Imported
[12:22:38] <strong>Record</strong> #273
[12:22:38] post #623 Successfully Imported
[12:22:38] <strong>Record</strong> #274
[12:22:38] post #624 Successfully Imported
[12:22:38] <strong>Record</strong> #275
[12:22:38] post #625 Successfully Imported
[12:22:38] <strong>Record</strong> #276
[12:22:38] post #626 Successfully Imported
[12:22:38] <strong>Record</strong> #277
[12:22:38] post #627 Successfully Imported
[12:22:38] <strong>Record</strong> #278
[12:22:38] post #628 Successfully Imported
[12:22:38] <strong>Record</strong> #279
[12:22:38] post #629 Successfully Imported
[12:22:38] <strong>Record</strong> #280
[12:22:38] post #630 Successfully Imported
[12:22:39] <strong>Record</strong> #281
[12:22:39] post #631 Successfully Imported
[12:22:39] <strong>Record</strong> #282
[12:22:39] post #632 Successfully Imported
[12:22:39] <strong>Record</strong> #283
[12:22:39] post #633 Successfully Imported
[12:22:39] <strong>Record</strong> #284
[12:22:39] post #634 Successfully Imported
[12:22:39] <strong>Record</strong> #285
[12:22:39] post #635 Successfully Imported
[12:22:39] <strong>Record</strong> #286
[12:22:40] post #636 Successfully Imported
[12:22:40] <strong>Record</strong> #287
[12:22:40] post #637 Successfully Imported
[12:22:40] <strong>Record</strong> #288
[12:22:40] post #638 Successfully Imported
[12:22:40] <strong>Record</strong> #289
[12:22:40] post #639 Successfully Imported
[12:22:40] <strong>Record</strong> #290
[12:22:40] post #640 Successfully Imported
[12:22:40] <strong>Record</strong> #291
[12:22:40] post #641 Successfully Imported
[12:22:40] <strong>Record</strong> #292
[12:22:40] post #642 Successfully Imported
[12:22:40] <strong>Record</strong> #293
[12:22:40] post #643 Successfully Imported
[12:22:40] <strong>Record</strong> #294
[12:22:40] post #644 Successfully Imported
[12:22:40] <strong>Record</strong> #295
[12:22:40] post #645 Successfully Imported
[12:22:40] <strong>Record</strong> #296
[12:22:40] post #646 Successfully Imported
[12:22:40] <strong>Record</strong> #297
[12:22:40] post #647 Successfully Imported
[12:22:40] <strong>Record</strong> #298
[12:22:40] post #648 Successfully Imported
[12:22:40] <strong>Record</strong> #299
[12:22:40] post #649 Successfully Imported
[12:22:40] <strong>Record</strong> #300
[12:22:40] post #650 Successfully Imported
[12:22:41] <strong>Record</strong> #301
[12:22:41] post #651 Successfully Imported
[12:22:41] <strong>Record</strong> #302
[12:22:41] post #652 Successfully Imported
[12:22:41] <strong>Record</strong> #303
[12:22:41] post #653 Successfully Imported
[12:22:41] <strong>Record</strong> #304
[12:22:41] post #654 Successfully Imported
[12:22:41] <strong>Record</strong> #305
[12:22:41] post #655 Successfully Imported
[12:22:41] <strong>Record</strong> #306
[12:22:41] post #656 Successfully Imported
[12:22:41] <strong>Record</strong> #307
[12:22:41] post #657 Successfully Imported
[12:22:41] <strong>Record</strong> #308
[12:22:41] post #658 Successfully Imported
[12:22:41] <strong>Record</strong> #309
[12:22:41] post #659 Successfully Imported
[12:22:41] <strong>Record</strong> #310
[12:22:41] post #660 Successfully Imported
[12:22:41] <strong>Record</strong> #311
[12:22:41] post #661 Successfully Imported
[12:22:41] <strong>Record</strong> #312
[12:22:41] post #662 Successfully Imported
[12:22:41] <strong>Record</strong> #313
[12:22:41] post #663 Successfully Imported
[12:22:41] <strong>Record</strong> #314
[12:22:41] post #664 Successfully Imported
[12:22:41] <strong>Record</strong> #315
[12:22:41] post #665 Successfully Imported
[12:22:41] <strong>Record</strong> #316
[12:22:41] post #666 Successfully Imported
[12:22:41] <strong>Record</strong> #317
[12:22:41] post #667 Successfully Imported
[12:22:41] <strong>Record</strong> #318
[12:22:41] post #668 Successfully Imported
[12:22:41] <strong>Record</strong> #319
[12:22:41] post #669 Successfully Imported
[12:22:41] <strong>Record</strong> #320
[12:22:41] post #670 Successfully Imported
[12:22:43] <strong>Record</strong> #321
[12:22:43] post #671 Successfully Imported
[12:22:43] <strong>Record</strong> #322
[12:22:43] post #672 Successfully Imported
[12:22:43] <strong>Record</strong> #323
[12:22:43] post #673 Successfully Imported
[12:22:43] <strong>Record</strong> #324
[12:22:43] post #674 Successfully Imported
[12:22:43] <strong>Record</strong> #325
[12:22:43] post #675 Successfully Imported
[12:22:43] <strong>Record</strong> #326
[12:22:43] post #676 Successfully Imported
[12:22:43] <strong>Record</strong> #327
[12:22:43] post #677 Successfully Imported
[12:22:43] <strong>Record</strong> #328
[12:22:43] post #678 Successfully Imported
[12:22:43] <strong>Record</strong> #329
[12:22:43] post #679 Successfully Imported
[12:22:43] <strong>Record</strong> #330
[12:22:43] post #680 Successfully Imported
[12:22:43] <strong>Record</strong> #331
[12:22:43] post #681 Successfully Imported
[12:22:43] <strong>Record</strong> #332
[12:22:43] post #682 Successfully Imported
[12:22:43] <strong>Record</strong> #333
[12:22:43] post #683 Successfully Imported
[12:22:43] <strong>Record</strong> #334
[12:22:43] post #684 Successfully Imported
[12:22:43] <strong>Record</strong> #335
[12:22:43] post #685 Successfully Imported
[12:22:43] <strong>Record</strong> #336
[12:22:43] post #686 Successfully Imported
[12:22:43] <strong>Record</strong> #337
[12:22:43] post #687 Successfully Imported
[12:22:43] <strong>Record</strong> #338
[12:22:43] post #688 Successfully Imported
[12:22:43] <strong>Record</strong> #339
[12:22:43] post #689 Successfully Imported
[12:22:43] <strong>Record</strong> #340
[12:22:43] post #690 Successfully Imported
[12:22:44] <strong>Record</strong> #341
[12:22:44] post #691 Successfully Imported
[12:22:44] <strong>Record</strong> #342
[12:22:45] post #692 Successfully Imported
[12:22:45] <strong>Record</strong> #343
[12:22:45] post #693 Successfully Imported
[12:22:45] <strong>Record</strong> #344
[12:22:45] post #694 Successfully Imported
[12:22:45] <strong>Record</strong> #345
[12:22:45] post #695 Successfully Imported
[12:22:45] <strong>Record</strong> #346
[12:22:45] post #696 Successfully Imported
[12:22:45] <strong>Record</strong> #347
[12:22:45] post #697 Successfully Imported
[12:22:45] <strong>Record</strong> #348
[12:22:45] post #698 Successfully Imported
[12:22:45] <strong>Record</strong> #349
[12:22:45] post #699 Successfully Imported
[12:22:45] <strong>Record</strong> #350
[12:22:45] post #700 Successfully Imported
[12:22:45] <strong>Record</strong> #351
[12:22:45] post #701 Successfully Imported
[12:22:45] <strong>Record</strong> #352
[12:22:45] post #702 Successfully Imported
[12:22:45] <strong>Record</strong> #353
[12:22:45] post #703 Successfully Imported
[12:22:45] <strong>Record</strong> #354
[12:22:45] post #704 Successfully Imported
[12:22:45] <strong>Record</strong> #355
[12:22:45] post #705 Successfully Imported
[12:22:45] <strong>Record</strong> #356
[12:22:45] post #706 Successfully Imported
[12:22:45] <strong>Record</strong> #357
[12:22:45] post #707 Successfully Imported
[12:22:45] <strong>Record</strong> #358
[12:22:45] post #708 Successfully Imported
[12:22:45] <strong>Record</strong> #359
[12:22:45] post #709 Successfully Imported
[12:22:45] <strong>Record</strong> #360
[12:22:45] post #710 Successfully Imported
[12:22:47] <strong>Record</strong> #361
[12:22:47] post #711 Successfully Imported
[12:22:47] <strong>Record</strong> #362
[12:22:47] post #712 Successfully Imported
[12:22:47] <strong>Record</strong> #363
[12:22:47] post #713 Successfully Imported
[12:22:47] <strong>Record</strong> #364
[12:22:47] post #714 Successfully Imported
[12:22:47] <strong>Record</strong> #365
[12:22:47] post #715 Successfully Imported
[12:22:47] <strong>Record</strong> #366
[12:22:47] post #716 Successfully Imported
[12:22:47] <strong>Record</strong> #367
[12:22:47] post #717 Successfully Imported
[12:22:47] <strong>Record</strong> #368
[12:22:47] post #718 Successfully Imported
[12:22:47] <strong>Record</strong> #369
[12:22:47] post #719 Successfully Imported
[12:22:47] <strong>Record</strong> #370
[12:22:47] post #720 Successfully Imported
[12:22:47] <strong>Record</strong> #371
[12:22:47] post #721 Successfully Imported
[12:22:47] <strong>Record</strong> #372
[12:22:47] post #722 Successfully Imported
[12:22:47] <strong>Record</strong> #373
[12:22:47] post #723 Successfully Imported
[12:22:47] <strong>Record</strong> #374
[12:22:47] post #724 Successfully Imported
[12:22:47] <strong>Record</strong> #375
[12:22:47] post #725 Successfully Imported
[12:22:47] <strong>Record</strong> #376
[12:22:47] post #726 Successfully Imported
[12:22:47] <strong>Record</strong> #377
[12:22:47] post #727 Successfully Imported
[12:22:47] <strong>Record</strong> #378
[12:22:47] post #728 Successfully Imported
[12:22:47] <strong>Record</strong> #379
[12:22:47] post #729 Successfully Imported
[12:22:47] <strong>Record</strong> #380
[12:22:47] post #730 Successfully Imported
[12:22:48] <strong>Record</strong> #381
[12:22:48] post #731 Successfully Imported
[12:22:48] <strong>Record</strong> #382
[12:22:48] post #732 Successfully Imported
[12:22:48] <strong>Record</strong> #383
[12:22:48] post #733 Successfully Imported
[12:22:48] <strong>Record</strong> #384
[12:22:48] post #734 Successfully Imported
[12:22:48] <strong>Record</strong> #385
[12:22:48] post #735 Successfully Imported
[12:22:48] <strong>Record</strong> #386
[12:22:48] post #736 Successfully Imported
[12:22:48] <strong>Record</strong> #387
[12:22:48] post #737 Successfully Imported
[12:22:48] <strong>Record</strong> #388
[12:22:48] post #738 Successfully Imported
[12:22:48] <strong>Record</strong> #389
[12:22:48] post #739 Successfully Imported
[12:22:48] <strong>Record</strong> #390
[12:22:48] post #740 Successfully Imported
[12:22:48] <strong>Record</strong> #391
[12:22:48] post #741 Successfully Imported
[12:22:48] <strong>Record</strong> #392
[12:22:48] post #742 Successfully Imported
[12:22:48] <strong>Record</strong> #393
[12:22:48] post #743 Successfully Imported
[12:22:48] <strong>Record</strong> #394
[12:22:48] post #744 Successfully Imported
[12:22:48] <strong>Record</strong> #395
[12:22:48] post #745 Successfully Imported
[12:22:48] <strong>Record</strong> #396
[12:22:48] post #746 Successfully Imported
[12:22:48] <strong>Record</strong> #397
[12:22:48] post #747 Successfully Imported
[12:22:48] <strong>Record</strong> #398
[12:22:48] post #748 Successfully Imported
[12:22:48] <strong>Record</strong> #399
[12:22:48] post #749 Successfully Imported
[12:22:48] <strong>Record</strong> #400
[12:22:48] post #750 Successfully Imported
[12:22:50] <strong>Record</strong> #401
[12:22:50] post #751 Successfully Imported
[12:22:50] <strong>Record</strong> #402
[12:22:50] post #752 Successfully Imported
[12:22:50] <strong>Record</strong> #403
[12:22:50] post #753 Successfully Imported
[12:22:50] <strong>Record</strong> #404
[12:22:50] post #754 Successfully Imported
[12:22:50] <strong>Record</strong> #405
[12:22:50] post #755 Successfully Imported
[12:22:50] <strong>Record</strong> #406
[12:22:50] post #756 Successfully Imported
[12:22:50] <strong>Record</strong> #407
[12:22:50] post #757 Successfully Imported
[12:22:50] <strong>Record</strong> #408
[12:22:50] post #758 Successfully Imported
[12:22:50] <strong>Record</strong> #409
[12:22:50] post #759 Successfully Imported
[12:22:50] <strong>Record</strong> #410
[12:22:50] post #760 Successfully Imported
[12:22:50] <strong>Record</strong> #411
[12:22:50] post #761 Successfully Imported
[12:22:50] <strong>Record</strong> #412
[12:22:50] post #762 Successfully Imported
[12:22:50] <strong>Record</strong> #413
[12:22:50] post #763 Successfully Imported
[12:22:50] <strong>Record</strong> #414
[12:22:50] post #764 Successfully Imported
[12:22:50] <strong>Record</strong> #415
[12:22:50] post #765 Successfully Imported
[12:22:50] <strong>Record</strong> #416
[12:22:50] post #766 Successfully Imported
