<?xml version="1.0" encoding="utf-8"?>
<!-- Generator: Adobe Illustrator 16.0.0, SVG Export Plug-In . SVG Version: 6.00 Build 0)  -->
<!DOCTYPE svg PUBLIC "-//W3C//DTD SVG 1.1//EN" "http://www.w3.org/Graphics/SVG/1.1/DTD/svg11.dtd">
<svg version="1.1" id="Layer_1" xmlns="http://www.w3.org/2000/svg" xmlns:xlink="http://www.w3.org/1999/xlink" x="0px" y="0px"
	 width="40px" height="40px" viewBox="0 0 40 40" enable-background="new 0 0 40 40" xml:space="preserve">
<g>
	<path fill="#FFFFFF" d="M2.829,8.979c0.206-0.446,0.56-0.581,1.039-0.574c1.399,0.021,2.799,0.007,4.199,0.007
		c0.576,0,0.831,0.2,0.958,0.759C9.2,9.94,9.37,10.709,9.548,11.504c0.112,0,0.223,0,0.332,0c6.131,0,12.262,0,18.393-0.002
		c0.361,0,0.694,0.073,0.833,0.427c0.078,0.205,0.087,0.478,0.026,0.691c-0.555,1.999-1.131,3.991-1.702,5.984
		c-0.434,1.517-0.866,3.034-1.302,4.549c-0.153,0.534-0.396,0.715-0.946,0.715c-4.568,0-9.136,0.002-13.705-0.002
		c-0.363,0-0.664,0.094-0.835,0.437c-0.242,0.484,0.076,1.049,0.619,1.105c0.102,0.011,0.206,0.006,0.309,0.006
		c4.542,0,9.085,0.002,13.628-0.002c0.362,0,0.662,0.095,0.835,0.437c0.253,0.503-0.096,1.084-0.672,1.105
		c-0.395,0.017-0.789,0.003-1.176,0.003c0.276,0.12,0.578,0.204,0.828,0.369c0.252,0.166,0.494,0.382,0.666,0.627
		c0.176,0.255,0.309,0.563,0.373,0.863c0.063,0.294,0.054,0.62,0.007,0.918c-0.166,1.059-1.224,1.896-2.305,1.858
		c-1.21-0.04-2.14-0.91-2.256-2.149c-0.09-0.949,0.454-2.129,1.967-2.476c-3.43,0-6.827,0-10.266,0
		c1.526,0.339,2.097,1.571,1.97,2.556c-0.156,1.212-1.129,2.081-2.305,2.071c-1.205-0.01-2.168-0.896-2.29-2.144
		c-0.099-1.02,0.534-2.173,1.935-2.527c-0.502,0-1.008,0.04-1.505-0.01c-0.953-0.094-1.766-0.875-1.941-1.803
		c-0.19-1.007,0.257-1.998,1.119-2.48c0.068-0.037,0.136-0.072,0.225-0.121c-0.929-4.18-1.858-8.361-2.79-12.553
		c-0.815,0-1.614,0-2.412,0c-0.447,0-0.895-0.021-1.339,0.006c-0.478,0.03-0.832-0.125-1.038-0.57
		C2.829,9.253,2.829,9.117,2.829,8.979z M27.405,13.067c-5.854,0-11.675,0-17.512,0c0.688,3.096,1.371,6.172,2.054,9.243
		c4.289,0,8.552,0,12.818,0C25.646,19.227,26.524,16.155,27.405,13.067z M12.882,30.052c0.421-0.005,0.769-0.357,0.765-0.777
		c-0.004-0.422-0.357-0.77-0.777-0.765c-0.42,0.003-0.768,0.356-0.765,0.776C12.108,29.706,12.462,30.056,12.882,30.052z
		 M24.571,29.272c-0.005-0.42-0.358-0.768-0.778-0.765c-0.42,0.004-0.768,0.357-0.765,0.777c0.005,0.421,0.356,0.769,0.776,0.766
		C24.227,30.047,24.573,29.694,24.571,29.272z"/>
</g>
</svg>
