<?xml version="1.0" encoding="utf-8"?>
<!-- Generator: Adobe Illustrator 16.0.0, SVG Export Plug-In . SVG Version: 6.00 Build 0)  -->
<!DOCTYPE svg PUBLIC "-//W3C//DTD SVG 1.1//EN" "http://www.w3.org/Graphics/SVG/1.1/DTD/svg11.dtd">
<svg version="1.1" id="Layer_1" xmlns="http://www.w3.org/2000/svg" xmlns:xlink="http://www.w3.org/1999/xlink" x="0px" y="0px"
	 width="30px" height="30px" viewBox="0 0 30 30" enable-background="new 0 0 30 30" xml:space="preserve">
<g>
	<path fill="#5E5E5F" d="M20.66,24c-3.772,0-7.547,0-11.32,0c-0.01-0.005-0.02-0.016-0.03-0.018
		c-0.675-0.102-1.224-0.664-1.223-1.485c0.002-2.57,0-5.141,0.002-7.711c0-0.614,0.262-1.091,0.827-1.355
		c0.216-0.101,0.469-0.126,0.727-0.191c0-0.038,0-0.103,0-0.165c0-0.509,0.003-1.019,0-1.528c-0.01-1.113,0.262-2.146,0.874-3.076
		c0.744-1.129,1.765-1.894,3.068-2.258C13.954,6.11,14.339,6.069,14.718,6c0.223,0,0.445,0,0.668,0
		c0.034,0.009,0.067,0.021,0.101,0.024c1.272,0.109,2.372,0.606,3.292,1.487c0.837,0.801,1.385,1.772,1.563,2.918
		c0.088,0.563,0.082,1.142,0.103,1.714c0.015,0.374,0.003,0.748,0.003,1.124c0.139,0.023,0.268,0.034,0.39,0.067
		c0.672,0.187,1.07,0.71,1.072,1.447c0.006,2.572,0.003,5.143,0.003,7.714c0,0.407-0.123,0.77-0.409,1.069
		C21.274,23.808,20.979,23.926,20.66,24z M18.074,13.277c0.004-0.045,0.011-0.073,0.011-0.102c0-0.585,0.013-1.171-0.002-1.757
		c-0.047-1.846-1.472-3.147-3.31-3.033c-1.439,0.088-2.71,1.382-2.756,2.823c-0.021,0.661-0.006,1.323-0.007,1.984
		c0,0.027,0.01,0.054,0.016,0.085C14.042,13.277,16.048,13.277,18.074,13.277z M15.705,20.169c0-0.247,0.012-0.495-0.003-0.738
		c-0.014-0.226,0.062-0.382,0.24-0.525c0.461-0.376,0.576-1.038,0.296-1.596c-0.259-0.52-0.904-0.83-1.458-0.7
		c-0.539,0.126-0.895,0.459-1.034,0.988c-0.141,0.535,0.028,0.992,0.451,1.349c0.137,0.112,0.185,0.242,0.183,0.411
		c-0.004,0.504-0.005,1.006-0.004,1.51c0,0.087,0.006,0.176,0.022,0.262c0.056,0.323,0.357,0.562,0.676,0.538
		c0.374-0.025,0.62-0.265,0.628-0.622C15.71,20.753,15.705,20.461,15.705,20.169z"/>
</g>
</svg>
