<?xml version="1.0" encoding="utf-8"?>
<!-- Generator: Adobe Illustrator 16.0.0, SVG Export Plug-In . SVG Version: 6.00 Build 0)  -->
<!DOCTYPE svg PUBLIC "-//W3C//DTD SVG 1.1//EN" "http://www.w3.org/Graphics/SVG/1.1/DTD/svg11.dtd">
<svg version="1.1" id="Layer_1" xmlns="http://www.w3.org/2000/svg" xmlns:xlink="http://www.w3.org/1999/xlink" x="0px" y="0px"
	 width="30px" height="30px" viewBox="0 0 30 30" enable-background="new 0 0 30 30" xml:space="preserve">
<g>
	<path fill-rule="evenodd" clip-rule="evenodd" fill="#5E5E5E" d="M6.907,8.798C6.99,8.885,7.029,8.928,7.07,8.969
		c2.473,2.481,4.946,4.962,7.419,7.443c0.344,0.345,0.677,0.346,1.02,0.001c2.473-2.481,4.946-4.962,7.421-7.442
		c0.044-0.044,0.111-0.065,0.168-0.097c-0.284-0.178-0.536-0.204-0.796-0.204c-4.868,0.001-9.736,0-14.604,0.001
		c-0.07,0-0.142-0.008-0.21,0.005C7.307,8.709,7.127,8.752,6.907,8.798z M17.602,15.776c-0.012,0.017-0.044,0.074-0.089,0.12
		c-0.433,0.438-0.864,0.875-1.302,1.308c-0.708,0.698-1.729,0.692-2.432-0.01c-0.436-0.435-0.869-0.871-1.303-1.307
		c-0.044-0.044-0.091-0.085-0.102-0.095c-1.818,1.8-3.624,3.588-5.438,5.385c0.247,0.125,0.499,0.151,0.759,0.151
		c4.869-0.001,9.738-0.001,14.607-0.001c0.07,0,0.143,0.008,0.211-0.005c0.182-0.033,0.361-0.075,0.569-0.119
		C21.242,19.383,19.434,17.592,17.602,15.776z"/>
	<path fill-rule="evenodd" clip-rule="evenodd" fill="#5E5E5E" d="M6,10.042C6.049,9.89,6.099,9.738,6.145,9.599
		c1.817,1.801,3.625,3.593,5.435,5.386c-1.816,1.8-3.625,3.591-5.44,5.389C6.104,20.267,6.052,20.111,6,19.957
		C6,16.652,6,13.347,6,10.042z"/>
	<path fill-rule="evenodd" clip-rule="evenodd" fill="#5E5E5E" d="M24,19.957c-0.05,0.152-0.1,0.305-0.146,0.443
		c-1.816-1.801-3.625-3.592-5.435-5.386c1.816-1.799,3.625-3.591,5.44-5.388c0.035,0.108,0.088,0.262,0.14,0.417
		C24,13.347,24,16.652,24,19.957z"/>
	<path fill-rule="evenodd" clip-rule="evenodd" fill="#5E5E5E" d="M6.907,8.798c0.22-0.046,0.4-0.089,0.582-0.122
		c0.068-0.013,0.14-0.005,0.21-0.005c4.868,0,9.736,0,14.604-0.001c0.26,0,0.512,0.025,0.796,0.204
		c-0.057,0.032-0.124,0.053-0.168,0.097c-2.476,2.479-4.948,4.96-7.421,7.442c-0.343,0.345-0.676,0.344-1.02-0.001
		c-2.473-2.481-4.946-4.962-7.419-7.443C7.029,8.928,6.99,8.885,6.907,8.798z"/>
	<path fill-rule="evenodd" clip-rule="evenodd" fill="#5E5E5E" d="M17.602,15.776c1.832,1.816,3.641,3.607,5.48,5.428
		c-0.208,0.044-0.388,0.086-0.569,0.119c-0.068,0.013-0.141,0.005-0.211,0.005c-4.869,0-9.738,0-14.607,0.001
		c-0.26,0-0.512-0.026-0.759-0.151c1.814-1.797,3.62-3.585,5.438-5.385c0.011,0.01,0.058,0.051,0.102,0.095
		c0.435,0.436,0.868,0.873,1.303,1.307c0.703,0.702,1.725,0.708,2.432,0.01c0.438-0.433,0.869-0.87,1.302-1.308
		C17.558,15.85,17.59,15.792,17.602,15.776z"/>
</g>
</svg>
